{
  "name": "mumba-errors",
  "dependencies": {
  },
  "devDependencies": {},
  "globalDependencies": {
    "es6-shim": "github:DefinitelyTyped/DefinitelyTyped/es6-shim/es6-shim.d.ts#4de74cb527395c13ba20b438c3a7a419ad931f1c",
    "mocha": "github:DefinitelyTyped/DefinitelyTyped/mocha/mocha.d.ts#d6dd320291705694ba8e1a79497a908e9f5e6617",
    "node": "registry:dt/node#6.0.0+20160807145350"
  }
}
